<?xml version="1.0" encoding="utf-8"?>
<!DOCTYPE eagle SYSTEM "eagle.dtd">
<eagle version="9.2.2">
<drawing>
<settings>
<setting alwaysvectorfont="no"/>
<setting verticaltext="up"/>
</settings>
<grid distance="0.1" unitdist="inch" unit="inch" style="lines" multiple="1" display="yes" altdistance="0.01" altunitdist="inch" altunit="inch"/>
<layers>
<layer number="1" name="Top" color="4" fill="1" visible="no" active="no"/>
<layer number="2" name="Route2" color="16" fill="1" visible="no" active="no"/>
<layer number="3" name="Route3" color="17" fill="1" visible="no" active="no"/>
<layer number="4" name="Route4" color="18" fill="1" visible="no" active="no"/>
<layer number="5" name="Route5" color="19" fill="1" visible="no" active="no"/>
<layer number="6" name="Route6" color="25" fill="1" visible="no" active="no"/>
<layer number="7" name="Route7" color="26" fill="1" visible="no" active="no"/>
<layer number="8" name="Route8" color="27" fill="1" visible="no" active="no"/>
<layer number="9" name="Route9" color="28" fill="1" visible="no" active="no"/>
<layer number="10" name="Route10" color="29" fill="1" visible="no" active="no"/>
<layer number="11" name="Route11" color="30" fill="1" visible="no" active="no"/>
<layer number="12" name="Route12" color="20" fill="1" visible="no" active="no"/>
<layer number="13" name="Route13" color="21" fill="1" visible="no" active="no"/>
<layer number="14" name="Route14" color="22" fill="1" visible="no" active="no"/>
<layer number="15" name="Route15" color="23" fill="1" visible="no" active="no"/>
<layer number="16" name="Bottom" color="1" fill="1" visible="no" active="no"/>
<layer number="17" name="Pads" color="2" fill="1" visible="no" active="no"/>
<layer number="18" name="Vias" color="2" fill="1" visible="no" active="no"/>
<layer number="19" name="Unrouted" color="6" fill="1" visible="no" active="no"/>
<layer number="20" name="Dimension" color="24" fill="1" visible="no" active="no"/>
<layer number="21" name="tPlace" color="7" fill="1" visible="no" active="no"/>
<layer number="22" name="bPlace" color="7" fill="1" visible="no" active="no"/>
<layer number="23" name="tOrigins" color="15" fill="1" visible="no" active="no"/>
<layer number="24" name="bOrigins" color="15" fill="1" visible="no" active="no"/>
<layer number="25" name="tNames" color="7" fill="1" visible="no" active="no"/>
<layer number="26" name="bNames" color="7" fill="1" visible="no" active="no"/>
<layer number="27" name="tValues" color="7" fill="1" visible="no" active="no"/>
<layer number="28" name="bValues" color="7" fill="1" visible="no" active="no"/>
<layer number="29" name="tStop" color="7" fill="3" visible="no" active="no"/>
<layer number="30" name="bStop" color="7" fill="6" visible="no" active="no"/>
<layer number="31" name="tCream" color="7" fill="4" visible="no" active="no"/>
<layer number="32" name="bCream" color="7" fill="5" visible="no" active="no"/>
<layer number="33" name="tFinish" color="6" fill="3" visible="no" active="no"/>
<layer number="34" name="bFinish" color="6" fill="6" visible="no" active="no"/>
<layer number="35" name="tGlue" color="7" fill="4" visible="no" active="no"/>
<layer number="36" name="bGlue" color="7" fill="5" visible="no" active="no"/>
<layer number="37" name="tTest" color="7" fill="1" visible="no" active="no"/>
<layer number="38" name="bTest" color="7" fill="1" visible="no" active="no"/>
<layer number="39" name="tKeepout" color="4" fill="11" visible="no" active="no"/>
<layer number="40" name="bKeepout" color="1" fill="11" visible="no" active="no"/>
<layer number="41" name="tRestrict" color="4" fill="10" visible="no" active="no"/>
<layer number="42" name="bRestrict" color="1" fill="10" visible="no" active="no"/>
<layer number="43" name="vRestrict" color="2" fill="10" visible="no" active="no"/>
<layer number="44" name="Drills" color="7" fill="1" visible="no" active="no"/>
<layer number="45" name="Holes" color="7" fill="1" visible="no" active="no"/>
<layer number="46" name="Milling" color="3" fill="1" visible="no" active="no"/>
<layer number="47" name="Measures" color="7" fill="1" visible="no" active="no"/>
<layer number="48" name="Document" color="7" fill="1" visible="no" active="no"/>
<layer number="49" name="Reference" color="7" fill="1" visible="no" active="no"/>
<layer number="50" name="dxf" color="7" fill="1" visible="no" active="no"/>
<layer number="51" name="tDocu" color="7" fill="1" visible="no" active="no"/>
<layer number="52" name="bDocu" color="7" fill="1" visible="no" active="no"/>
<layer number="53" name="tGND_GNDA" color="7" fill="9" visible="no" active="no"/>
<layer number="54" name="bGND_GNDA" color="1" fill="9" visible="no" active="no"/>
<layer number="56" name="wert" color="7" fill="1" visible="no" active="no"/>
<layer number="57" name="tCAD" color="7" fill="1" visible="no" active="no"/>
<layer number="59" name="tCarbon" color="7" fill="1" visible="no" active="no"/>
<layer number="60" name="bCarbon" color="7" fill="1" visible="no" active="no"/>
<layer number="88" name="SimResults" color="9" fill="1" visible="yes" active="yes"/>
<layer number="89" name="SimProbes" color="9" fill="1" visible="yes" active="yes"/>
<layer number="90" name="Modules" color="5" fill="1" visible="yes" active="yes"/>
<layer number="91" name="Nets" color="2" fill="1" visible="yes" active="yes"/>
<layer number="92" name="Busses" color="1" fill="1" visible="yes" active="yes"/>
<layer number="93" name="Pins" color="2" fill="1" visible="no" active="yes"/>
<layer number="94" name="Symbols" color="4" fill="1" visible="yes" active="yes"/>
<layer number="95" name="Names" color="7" fill="1" visible="yes" active="yes"/>
<layer number="96" name="Values" color="7" fill="1" visible="yes" active="yes"/>
<layer number="97" name="Info" color="7" fill="1" visible="yes" active="yes"/>
<layer number="98" name="Guide" color="6" fill="1" visible="yes" active="yes"/>
<layer number="99" name="SpiceOrder" color="7" fill="1" visible="yes" active="yes"/>
<layer number="100" name="Muster" color="7" fill="1" visible="no" active="no"/>
<layer number="101" name="Patch_Top" color="12" fill="4" visible="no" active="yes"/>
<layer number="102" name="Vscore" color="7" fill="1" visible="no" active="yes"/>
<layer number="103" name="tMap" color="7" fill="1" visible="no" active="yes"/>
<layer number="104" name="Name" color="7" fill="1" visible="no" active="yes"/>
<layer number="105" name="tPlate" color="7" fill="1" visible="no" active="yes"/>
<layer number="106" name="bPlate" color="7" fill="1" visible="no" active="yes"/>
<layer number="107" name="Crop" color="7" fill="1" visible="no" active="yes"/>
<layer number="108" name="tplace-old" color="10" fill="1" visible="no" active="yes"/>
<layer number="109" name="ref-old" color="11" fill="1" visible="no" active="yes"/>
<layer number="110" name="fp0" color="7" fill="1" visible="no" active="yes"/>
<layer number="111" name="LPC17xx" color="7" fill="1" visible="no" active="yes"/>
<layer number="112" name="tSilk" color="7" fill="1" visible="no" active="yes"/>
<layer number="113" name="IDFDebug" color="7" fill="1" visible="no" active="yes"/>
<layer number="114" name="Badge_Outline" color="7" fill="1" visible="no" active="yes"/>
<layer number="115" name="ReferenceISLANDS" color="7" fill="1" visible="no" active="yes"/>
<layer number="116" name="Patch_BOT" color="9" fill="4" visible="no" active="yes"/>
<layer number="117" name="BACKMAAT1" color="7" fill="1" visible="yes" active="yes"/>
<layer number="118" name="Rect_Pads" color="7" fill="1" visible="no" active="yes"/>
<layer number="119" name="KAP_TEKEN" color="7" fill="1" visible="yes" active="yes"/>
<layer number="120" name="KAP_MAAT1" color="7" fill="1" visible="yes" active="yes"/>
<layer number="121" name="_tsilk" color="7" fill="1" visible="no" active="yes"/>
<layer number="122" name="_bsilk" color="7" fill="1" visible="no" active="yes"/>
<layer number="123" name="tTestmark" color="7" fill="1" visible="no" active="yes"/>
<layer number="124" name="bTestmark" color="7" fill="1" visible="no" active="yes"/>
<layer number="125" name="_tNames" color="7" fill="1" visible="no" active="yes"/>
<layer number="126" name="_bNames" color="7" fill="1" visible="no" active="yes"/>
<layer number="127" name="_tValues" color="7" fill="1" visible="no" active="yes"/>
<layer number="128" name="_bValues" color="7" fill="1" visible="no" active="yes"/>
<layer number="129" name="Mask" color="7" fill="1" visible="no" active="yes"/>
<layer number="130" name="SMDSTROOK" color="7" fill="1" visible="yes" active="yes"/>
<layer number="131" name="tAdjust" color="7" fill="1" visible="no" active="yes"/>
<layer number="132" name="bAdjust" color="7" fill="1" visible="no" active="yes"/>
<layer number="133" name="bottom_silk" color="7" fill="1" visible="yes" active="yes"/>
<layer number="144" name="Drill_legend" color="7" fill="1" visible="no" active="yes"/>
<layer number="150" name="Notes" color="7" fill="1" visible="no" active="yes"/>
<layer number="151" name="HeatSink" color="7" fill="1" visible="no" active="yes"/>
<layer number="152" name="_bDocu" color="7" fill="1" visible="no" active="yes"/>
<layer number="153" name="FabDoc1" color="7" fill="1" visible="no" active="yes"/>
<layer number="154" name="FabDoc2" color="7" fill="1" visible="no" active="yes"/>
<layer number="155" name="FabDoc3" color="7" fill="1" visible="no" active="yes"/>
<layer number="199" name="Contour" color="7" fill="1" visible="no" active="yes"/>
<layer number="200" name="200bmp" color="1" fill="10" visible="no" active="yes"/>
<layer number="201" name="201bmp" color="2" fill="10" visible="no" active="yes"/>
<layer number="202" name="202bmp" color="3" fill="10" visible="no" active="yes"/>
<layer number="203" name="203bmp" color="4" fill="10" visible="no" active="yes"/>
<layer number="204" name="204bmp" color="5" fill="10" visible="no" active="yes"/>
<layer number="205" name="205bmp" color="6" fill="10" visible="no" active="yes"/>
<layer number="206" name="206bmp" color="7" fill="10" visible="no" active="yes"/>
<layer number="207" name="207bmp" color="8" fill="10" visible="no" active="yes"/>
<layer number="208" name="208bmp" color="9" fill="10" visible="no" active="yes"/>
<layer number="209" name="209bmp" color="7" fill="1" visible="no" active="yes"/>
<layer number="210" name="210bmp" color="7" fill="1" visible="no" active="yes"/>
<layer number="211" name="211bmp" color="7" fill="1" visible="no" active="yes"/>
<layer number="212" name="212bmp" color="7" fill="1" visible="no" active="yes"/>
<layer number="213" name="213bmp" color="7" fill="1" visible="no" active="yes"/>
<layer number="214" name="214bmp" color="7" fill="1" visible="no" active="yes"/>
<layer number="215" name="215bmp" color="7" fill="1" visible="no" active="yes"/>
<layer number="216" name="216bmp" color="7" fill="1" visible="no" active="yes"/>
<layer number="217" name="217bmp" color="18" fill="1" visible="no" active="no"/>
<layer number="218" name="218bmp" color="19" fill="1" visible="no" active="no"/>
<layer number="219" name="219bmp" color="20" fill="1" visible="no" active="no"/>
<layer number="220" name="220bmp" color="21" fill="1" visible="no" active="no"/>
<layer number="221" name="221bmp" color="22" fill="1" visible="no" active="no"/>
<layer number="222" name="222bmp" color="23" fill="1" visible="no" active="no"/>
<layer number="223" name="223bmp" color="24" fill="1" visible="no" active="no"/>
<layer number="224" name="224bmp" color="25" fill="1" visible="no" active="no"/>
<layer number="225" name="225bmp" color="7" fill="1" visible="no" active="yes"/>
<layer number="226" name="226bmp" color="7" fill="1" visible="no" active="yes"/>
<layer number="227" name="227bmp" color="7" fill="1" visible="no" active="yes"/>
<layer number="228" name="228bmp" color="7" fill="1" visible="no" active="yes"/>
<layer number="229" name="229bmp" color="7" fill="1" visible="no" active="yes"/>
<layer number="230" name="230bmp" color="7" fill="1" visible="no" active="yes"/>
<layer number="231" name="231bmp" color="7" fill="1" visible="no" active="yes"/>
<layer number="232" name="Eagle3D_PG2" color="7" fill="1" visible="no" active="yes"/>
<layer number="233" name="Eagle3D_PG3" color="7" fill="1" visible="no" active="yes"/>
<layer number="248" name="Housing" color="7" fill="1" visible="no" active="yes"/>
<layer number="249" name="Edge" color="7" fill="1" visible="no" active="yes"/>
<layer number="250" name="Descript" color="3" fill="1" visible="no" active="no"/>
<layer number="251" name="SMDround" color="12" fill="11" visible="no" active="no"/>
<layer number="254" name="cooling" color="7" fill="1" visible="no" active="yes"/>
<layer number="255" name="routoute" color="7" fill="1" visible="no" active="yes"/>
</layers>
<schematic xreflabel="%F%N/%S.%C%R" xrefpart="/%S.%C%R">
<libraries>
<library name="supply1" urn="urn:adsk.eagle:library:371">
<description>&lt;b&gt;Supply Symbols&lt;/b&gt;&lt;p&gt;
 GND, VCC, 0V, +5V, -5V, etc.&lt;p&gt;
 Please keep in mind, that these devices are necessary for the
 automatic wiring of the supply signals.&lt;p&gt;
 The pin name defined in the symbol is identical to the net which is to be wired automatically.&lt;p&gt;
 In this library the device names are the same as the pin names of the symbols, therefore the correct signal names appear next to the supply symbols in the schematic.&lt;p&gt;
 &lt;author&gt;Created by librarian@cadsoft.de&lt;/author&gt;</description>
<packages>
</packages>
<symbols>
<symbol name="GND" urn="urn:adsk.eagle:symbol:26925/1" library_version="1">
<wire x1="-1.905" y1="0" x2="1.905" y2="0" width="0.254" layer="94"/>
<text x="-2.54" y="-2.54" size="1.778" layer="96">&gt;VALUE</text>
<pin name="GND" x="0" y="2.54" visible="off" length="short" direction="sup" rot="R270"/>
</symbol>
<symbol name="V+" urn="urn:adsk.eagle:symbol:26939/1" library_version="1">
<wire x1="0.889" y1="-1.27" x2="0" y2="0.127" width="0.254" layer="94"/>
<wire x1="0" y1="0.127" x2="-0.889" y2="-1.27" width="0.254" layer="94"/>
<wire x1="-0.889" y1="-1.27" x2="0.889" y2="-1.27" width="0.254" layer="94"/>
<text x="-2.54" y="-2.54" size="1.778" layer="96" rot="R90">&gt;VALUE</text>
<pin name="V+" x="0" y="-2.54" visible="off" length="short" direction="sup" rot="R90"/>
</symbol>
<symbol name="+5V" urn="urn:adsk.eagle:symbol:26929/1" library_version="1">
<wire x1="1.27" y1="-1.905" x2="0" y2="0" width="0.254" layer="94"/>
<wire x1="0" y1="0" x2="-1.27" y2="-1.905" width="0.254" layer="94"/>
<text x="-2.54" y="-5.08" size="1.778" layer="96" rot="R90">&gt;VALUE</text>
<pin name="+5V" x="0" y="-2.54" visible="off" length="short" direction="sup" rot="R90"/>
</symbol>
</symbols>
<devicesets>
<deviceset name="GND" urn="urn:adsk.eagle:component:26954/1" prefix="GND" library_version="1">
<description>&lt;b&gt;SUPPLY SYMBOL&lt;/b&gt;</description>
<gates>
<gate name="1" symbol="GND" x="0" y="0"/>
</gates>
<devices>
<device name="">
<technologies>
<technology name=""/>
</technologies>
</device>
</devices>
</deviceset>
<deviceset name="V+" urn="urn:adsk.eagle:component:26966/1" prefix="P+" library_version="1">
<description>&lt;b&gt;SUPPLY SYMBOL&lt;/b&gt;</description>
<gates>
<gate name="1" symbol="V+" x="0" y="0"/>
</gates>
<devices>
<device name="">
<technologies>
<technology name=""/>
</technologies>
</device>
</devices>
</deviceset>
<deviceset name="+5V" urn="urn:adsk.eagle:component:26963/1" prefix="P+" library_version="1">
<description>&lt;b&gt;SUPPLY SYMBOL&lt;/b&gt;</description>
<gates>
<gate name="1" symbol="+5V" x="0" y="0"/>
</gates>
<devices>
<device name="">
<technologies>
<technology name=""/>
</technologies>
</device>
</devices>
</deviceset>
</devicesets>
</library>
<library name="connector">
<packages>
<package name="AVX_9159_3_PCB_FEMALE">
<wire x1="-6" y1="0" x2="6" y2="0" width="0.127" layer="51"/>
<smd name="P$M1" x="-5.435" y="-1.25" dx="1.6" dy="1.5" layer="1"/>
<smd name="P$A" x="-3" y="-1.88" dx="1.2" dy="1.6" layer="1"/>
<rectangle x1="-5.5" y1="-3" x2="5.5" y2="2.7" layer="51"/>
<smd name="P$B" x="0" y="-1.88" dx="1.2" dy="1.6" layer="1"/>
<smd name="P$C" x="3" y="-1.88" dx="1.2" dy="1.6" layer="1"/>
<smd name="P$M2" x="5.435" y="-1.25" dx="1.6" dy="1.5" layer="1"/>
<wire x1="-3" y1="-3" x2="-3.5" y2="-3.5" width="0.127" layer="21"/>
<wire x1="-3.5" y1="-3.5" x2="-2.5" y2="-3.5" width="0.127" layer="21"/>
<wire x1="-2.5" y1="-3.5" x2="-3" y2="-3" width="0.127" layer="21"/>
<text x="-1.5" y="-2" size="0.8128" layer="21" font="vector" align="center">f</text>
</package>
<package name="PDBCONN_ABC">
<circle x="0" y="0" radius="1.6" width="0.127" layer="51"/>
<circle x="0" y="6.5" radius="1.6" width="0.127" layer="51"/>
<circle x="0" y="6.5" radius="2.75" width="0.127" layer="51"/>
<circle x="0" y="0" radius="2.75" width="0.127" layer="51"/>
<wire x1="0" y1="1.5" x2="0" y2="5" width="0.127" layer="51"/>
<wire x1="0" y1="8" x2="0" y2="10" width="0.127" layer="51"/>
<wire x1="0" y1="10" x2="2.6" y2="10" width="0.127" layer="51"/>
<polygon width="0.127" layer="1">
<vertex x="0.4" y="4.5" curve="90"/>
<vertex x="2" y="6.2"/>
<vertex x="2" y="6.6" curve="90"/>
<vertex x="0.4" y="8.4"/>
<vertex x="0.4" y="9.6"/>
<vertex x="3.1" y="9.6"/>
<vertex x="3.1" y="3.4"/>
<vertex x="0.4" y="3.4"/>
</polygon>
<polygon width="0.127" layer="1">
<vertex x="0.4" y="-2" curve="90"/>
<vertex x="2" y="-0.1"/>
<vertex x="2" y="0.3" curve="90"/>
<vertex x="0.4" y="2"/>
<vertex x="0.4" y="3.1"/>
<vertex x="3.1" y="3.1"/>
<vertex x="3.1" y="-3.1"/>
<vertex x="0.4" y="-3.1"/>
</polygon>
<pad name="P$B1" x="2.5" y="-2.5" drill="0.4" shape="square" stop="no" thermals="no"/>
<pad name="P$B2" x="2.5" y="2.5" drill="0.4" shape="square" stop="no" thermals="no"/>
<pad name="P$C1" x="2.5" y="4" drill="0.4" shape="square" stop="no" thermals="no"/>
<pad name="P$C2" x="2.5" y="9" drill="0.4" shape="square" stop="no" thermals="no"/>
<polygon width="0.127" layer="29">
<vertex x="-3" y="6.5" curve="-90"/>
<vertex x="0" y="9.5" curve="-90"/>
<vertex x="3" y="6.5" curve="-90"/>
<vertex x="0" y="3.5" curve="-90"/>
</polygon>
<polygon width="0.127" layer="29">
<vertex x="-3" y="0" curve="-90"/>
<vertex x="0" y="3" curve="-90"/>
<vertex x="3" y="0" curve="-90"/>
<vertex x="0" y="-3" curve="-90"/>
</polygon>
<polygon width="0.127" layer="30">
<vertex x="-3" y="6.5" curve="-90"/>
<vertex x="0" y="9.5" curve="-90"/>
<vertex x="3" y="6.5" curve="-90"/>
<vertex x="0" y="3.5" curve="-90"/>
</polygon>
<polygon width="0.127" layer="30">
<vertex x="-3" y="0" curve="-90"/>
<vertex x="0" y="3" curve="-90"/>
<vertex x="3" y="0" curve="-90"/>
<vertex x="0" y="-3" curve="-90"/>
</polygon>
<polygon width="0.127" layer="16">
<vertex x="0.4" y="4.5" curve="90"/>
<vertex x="2" y="6.2"/>
<vertex x="2" y="6.6" curve="90"/>
<vertex x="0.4" y="8.4"/>
<vertex x="0.4" y="9.6"/>
<vertex x="3.1" y="9.6"/>
<vertex x="3.1" y="3.4"/>
<vertex x="0.4" y="3.4"/>
</polygon>
<polygon width="0.127" layer="16">
<vertex x="0.4" y="-2" curve="90"/>
<vertex x="2" y="-0.1"/>
<vertex x="2" y="0.3" curve="90"/>
<vertex x="0.4" y="2"/>
<vertex x="0.4" y="3.1"/>
<vertex x="3.1" y="3.1"/>
<vertex x="3.1" y="-3.1"/>
<vertex x="0.4" y="-3.1"/>
</polygon>
<circle x="0" y="-6.5" radius="1.6" width="0.127" layer="51"/>
<circle x="0" y="-6.5" radius="2.75" width="0.127" layer="51"/>
<polygon width="0.127" layer="1">
<vertex x="0.4" y="-8.5" curve="90"/>
<vertex x="2" y="-6.6"/>
<vertex x="2" y="-6.2" curve="90"/>
<vertex x="0.4" y="-4.5"/>
<vertex x="0.4" y="-3.4"/>
<vertex x="3.1" y="-3.4"/>
<vertex x="3.1" y="-9.6"/>
<vertex x="0.4" y="-9.6"/>
</polygon>
<pad name="P$A1" x="2.5" y="-9" drill="0.4" shape="square" stop="no" thermals="no"/>
<pad name="P$A2" x="2.5" y="-4" drill="0.4" shape="square" stop="no" thermals="no"/>
<polygon width="0.127" layer="30">
<vertex x="-3" y="-6.5" curve="-90"/>
<vertex x="0" y="-3.5" curve="-90"/>
<vertex x="3" y="-6.5" curve="-90"/>
<vertex x="0" y="-9.5" curve="-90"/>
</polygon>
<polygon width="0.127" layer="16">
<vertex x="0.4" y="-8.5" curve="90"/>
<vertex x="2" y="-6.6"/>
<vertex x="2" y="-6.2" curve="90"/>
<vertex x="0.4" y="-4.5"/>
<vertex x="0.4" y="-3.4"/>
<vertex x="3.1" y="-3.4"/>
<vertex x="3.1" y="-9.6"/>
<vertex x="0.4" y="-9.6"/>
</polygon>
<wire x1="0" y1="-5" x2="0" y2="-1.5" width="0.127" layer="51"/>
<wire x1="0" y1="-10" x2="0" y2="-8" width="0.127" layer="51"/>
<wire x1="0" y1="-10" x2="2.6" y2="-10" width="0.127" layer="51"/>
<polygon width="0.127" layer="29">
<vertex x="-3" y="-6.7" curve="-90"/>
<vertex x="0" y="-3.5" curve="-90"/>
<vertex x="3" y="-6.35" curve="-90"/>
<vertex x="0" y="-9.5" curve="-90"/>
</polygon>
</package>
<package name="AVX_9159_3_PCB_MALE">
<wire x1="-6" y1="0" x2="6" y2="0" width="0.127" layer="51"/>
<smd name="P$M1" x="-5.435" y="-1.25" dx="1.6" dy="1.5" layer="1"/>
<smd name="P$C" x="-3" y="-1.88" dx="1.2" dy="1.6" layer="1"/>
<rectangle x1="-5.5" y1="-2.5" x2="5.5" y2="2.7" layer="51"/>
<smd name="P$B" x="0" y="-1.88" dx="1.2" dy="1.6" layer="1"/>
<smd name="P$A" x="3" y="-1.88" dx="1.2" dy="1.6" layer="1"/>
<smd name="P$M2" x="5.435" y="-1.25" dx="1.6" dy="1.5" layer="1"/>
<wire x1="3" y1="-3.5" x2="2.5" y2="-3" width="0.127" layer="21"/>
<wire x1="2.5" y1="-3" x2="3.5" y2="-3" width="0.127" layer="21"/>
<wire x1="3.5" y1="-3" x2="3" y2="-3.5" width="0.127" layer="21"/>
<text x="1.5" y="-2" size="0.8128" layer="21" font="vector" rot="R180" align="center">m</text>
</package>
<package name="LITE-TRAP-MOLEX-203863">
<smd name="P$1" x="-3.05" y="0" dx="1" dy="1" layer="1" stop="no" thermals="no" cream="no"/>
<wire x1="-1.65" y1="1.5" x2="4.15" y2="1.5" width="0.0762" layer="51"/>
<wire x1="-1.65" y1="-1.5" x2="4.15" y2="-1.5" width="0.0762" layer="51"/>
<circle x="0" y="0" radius="1" width="0.0762" layer="51"/>
<wire x1="-3.5" y1="0" x2="-4" y2="0.5" width="0.0762" layer="51"/>
<wire x1="-4" y1="0.5" x2="-4" y2="-0.5" width="0.0762" layer="51"/>
<wire x1="-4" y1="-0.5" x2="-3.5" y2="0" width="0.0762" layer="51"/>
<polygon width="0.1" layer="1">
<vertex x="-1.9" y="1.25"/>
<vertex x="4.2" y="1.25"/>
<vertex x="4.2" y="-1.25"/>
<vertex x="-1.9" y="-1.25"/>
<vertex x="-1.9" y="-1.7"/>
<vertex x="-4.2" y="-1.7"/>
<vertex x="-4.2" y="1.7"/>
<vertex x="-1.9" y="1.7"/>
</polygon>
<polygon width="0.1" layer="31">
<vertex x="-4.2" y="1.7"/>
<vertex x="-1.9" y="1.7"/>
<vertex x="-1.9" y="1.25"/>
<vertex x="4.2" y="1.25"/>
<vertex x="4.2" y="-1.25"/>
<vertex x="-1.9" y="-1.25"/>
<vertex x="-1.9" y="-1.65"/>
<vertex x="-1.9" y="-1.7"/>
<vertex x="-4.2" y="-1.7"/>
</polygon>
<polygon width="0.1" layer="29">
<vertex x="-4.35" y="1.85"/>
<vertex x="-1.75" y="1.85"/>
<vertex x="-1.75" y="1.4"/>
<vertex x="4.35" y="1.4"/>
<vertex x="4.35" y="-1.4"/>
<vertex x="-1.75" y="-1.4"/>
<vertex x="-1.75" y="-1.85"/>
<vertex x="-4.35" y="-1.85"/>
</polygon>
</package>
</packages>
<symbols>
<symbol name="CONN_03_SQUIDPOW">
<description>&lt;h3&gt;2 Pin Connection&lt;/h3&gt;</description>
<wire x1="3.81" y1="-7.62" x2="-5.08" y2="-7.62" width="0.4064" layer="94"/>
<wire x1="1.27" y1="2.54" x2="2.54" y2="2.54" width="0.6096" layer="94"/>
<wire x1="1.27" y1="-5.08" x2="2.54" y2="-5.08" width="0.6096" layer="94"/>
<wire x1="-5.08" y1="12.7" x2="-5.08" y2="-7.62" width="0.4064" layer="94"/>
<wire x1="3.81" y1="-7.62" x2="3.81" y2="12.7" width="0.4064" layer="94"/>
<wire x1="-5.08" y1="12.7" x2="3.81" y2="12.7" width="0.4064" layer="94"/>
<text x="-2.54" y="-10.16" size="1.778" layer="96" font="vector">&gt;VALUE</text>
<text x="-2.54" y="13.208" size="1.778" layer="95" font="vector">&gt;NAME</text>
<pin name="A" x="7.62" y="-5.08" length="middle" direction="pas" swaplevel="1" rot="R180"/>
<pin name="B" x="7.62" y="2.54" length="middle" direction="pas" swaplevel="1" rot="R180"/>
<pin name="C" x="7.62" y="10.16" length="middle" direction="pas" swaplevel="1" rot="R180"/>
<wire x1="1.27" y1="10.16" x2="2.54" y2="10.16" width="0.6096" layer="94"/>
</symbol>
<symbol name="CONN_01">
<description>&lt;h3&gt;2 Pin Connection&lt;/h3&gt;</description>
<wire x1="3.81" y1="-2.54" x2="-2.54" y2="-2.54" width="0.4064" layer="94"/>
<wire x1="1.27" y1="0" x2="2.54" y2="0" width="0.6096" layer="94"/>
<wire x1="-2.54" y1="2.54" x2="-2.54" y2="-2.54" width="0.4064" layer="94"/>
<wire x1="3.81" y1="-2.54" x2="3.81" y2="2.54" width="0.4064" layer="94"/>
<wire x1="-2.54" y1="2.54" x2="3.81" y2="2.54" width="0.4064" layer="94"/>
<text x="-2.54" y="-4.826" size="1.778" layer="96" font="vector">&gt;VALUE</text>
<text x="-2.54" y="3.048" size="1.778" layer="95" font="vector">&gt;NAME</text>
<pin name="2" x="7.62" y="0" visible="pad" length="middle" direction="pas" swaplevel="1" rot="R180"/>
</symbol>
</symbols>
<devicesets>
<deviceset name="SQUIDPOWER_3">
<gates>
<gate name="G$1" symbol="CONN_03_SQUIDPOW" x="0" y="0"/>
</gates>
<devices>
<device name="MALE" package="AVX_9159_3_PCB_MALE">
<connects>
<connect gate="G$1" pin="A" pad="P$A"/>
<connect gate="G$1" pin="B" pad="P$B"/>
<connect gate="G$1" pin="C" pad="P$C"/>
</connects>
<technologies>
<technology name=""/>
</technologies>
</device>
<device name="PDB_SPLIT" package="PDBCONN_ABC">
<connects>
<connect gate="G$1" pin="A" pad="P$A1 P$A2"/>
<connect gate="G$1" pin="B" pad="P$B1 P$B2"/>
<connect gate="G$1" pin="C" pad="P$C1 P$C2"/>
</connects>
<technologies>
<technology name=""/>
</technologies>
</device>
<device name="FEMALE" package="AVX_9159_3_PCB_FEMALE">
<connects>
<connect gate="G$1" pin="A" pad="P$A"/>
<connect gate="G$1" pin="B" pad="P$B"/>
<connect gate="G$1" pin="C" pad="P$C"/>
</connects>
<technologies>
<technology name=""/>
</technologies>
</device>
</devices>
</deviceset>
<deviceset name="POKEPOWER">
<gates>
<gate name="G$1" symbol="CONN_01" x="0" y="0"/>
</gates>
<devices>
<device name="" package="LITE-TRAP-MOLEX-203863">
<connects>
<connect gate="G$1" pin="2" pad="P$1"/>
</connects>
<technologies>
<technology name=""/>
</technologies>
</device>
</devices>
</deviceset>
</devicesets>
</library>
</libraries>
<attributes>
</attributes>
<variantdefs>
</variantdefs>
<classes>
<class number="0" name="default" width="0" drill="0">
</class>
</classes>
<parts>
<part name="U$1" library="connector" deviceset="SQUIDPOWER_3" device="PDB_SPLIT"/>
<part name="U$2" library="connector" deviceset="SQUIDPOWER_3" device="PDB_SPLIT"/>
<part name="P+2" library="supply1" library_urn="urn:adsk.eagle:library:371" deviceset="+5V" device=""/>
<part name="P+3" library="supply1" library_urn="urn:adsk.eagle:library:371" deviceset="V+" device=""/>
<part name="GND2" library="supply1" library_urn="urn:adsk.eagle:library:371" deviceset="GND" device=""/>
<part name="GND3" library="supply1" library_urn="urn:adsk.eagle:library:371" deviceset="GND" device=""/>
<part name="GND4" library="supply1" library_urn="urn:adsk.eagle:library:371" deviceset="GND" device=""/>
<part name="P+4" library="supply1" library_urn="urn:adsk.eagle:library:371" deviceset="V+" device=""/>
<part name="P+5" library="supply1" library_urn="urn:adsk.eagle:library:371" deviceset="+5V" device=""/>
<part name="P+1" library="supply1" library_urn="urn:adsk.eagle:library:371" deviceset="V+" device=""/>
<part name="P+6" library="supply1" library_urn="urn:adsk.eagle:library:371" deviceset="+5V" device=""/>
<part name="GND1" library="supply1" library_urn="urn:adsk.eagle:library:371" deviceset="GND" device=""/>
<part name="P+7" library="supply1" library_urn="urn:adsk.eagle:library:371" deviceset="V+" device=""/>
<part name="P+8" library="supply1" library_urn="urn:adsk.eagle:library:371" deviceset="+5V" device=""/>
<part name="U$3" library="connector" deviceset="POKEPOWER" device=""/>
<part name="U$4" library="connector" deviceset="POKEPOWER" device=""/>
<part name="U$5" library="connector" deviceset="POKEPOWER" device=""/>
<part name="U$6" library="connector" deviceset="POKEPOWER" device=""/>
<part name="U$7" library="connector" deviceset="POKEPOWER" device=""/>
<part name="U$8" library="connector" deviceset="POKEPOWER" device=""/>
</parts>
<sheets>
<sheet>
<plain>
</plain>
<instances>
<instance part="U$1" gate="G$1" x="63.5" y="53.34" smashed="yes">
<attribute name="VALUE" x="60.96" y="43.18" size="1.778" layer="96" font="vector"/>
<attribute name="NAME" x="60.96" y="66.548" size="1.778" layer="95" font="vector"/>
</instance>
<instance part="U$2" gate="G$1" x="63.5" y="20.32" smashed="yes">
<attribute name="VALUE" x="60.96" y="10.16" size="1.778" layer="96" font="vector"/>
<attribute name="NAME" x="60.96" y="33.528" size="1.778" layer="95" font="vector"/>
</instance>
<instance part="P+2" gate="1" x="81.28" y="55.88" smashed="yes" rot="R270">
<attribute name="VALUE" x="76.2" y="58.42" size="1.778" layer="96"/>
</instance>
<instance part="P+3" gate="1" x="81.28" y="63.5" smashed="yes" rot="R270">
<attribute name="VALUE" x="78.74" y="66.04" size="1.778" layer="96"/>
</instance>
<instance part="GND2" gate="1" x="81.28" y="48.26" smashed="yes" rot="R90">
<attribute name="VALUE" x="83.82" y="45.72" size="1.778" layer="96" rot="R90"/>
</instance>
<instance part="GND3" gate="1" x="81.28" y="15.24" smashed="yes" rot="R90">
<attribute name="VALUE" x="83.82" y="12.7" size="1.778" layer="96" rot="R90"/>
</instance>
<instance part="GND4" gate="1" x="35.56" y="48.26" smashed="yes" rot="R90">
<attribute name="VALUE" x="38.1" y="45.72" size="1.778" layer="96" rot="R90"/>
</instance>
<instance part="P+4" gate="1" x="35.56" y="63.5" smashed="yes" rot="R270">
<attribute name="VALUE" x="33.02" y="66.04" size="1.778" layer="96"/>
</instance>
<instance part="P+5" gate="1" x="35.56" y="55.88" smashed="yes" rot="R270">
<attribute name="VALUE" x="30.48" y="58.42" size="1.778" layer="96"/>
</instance>
<instance part="P+1" gate="1" x="81.28" y="30.48" smashed="yes" rot="R270">
<attribute name="VALUE" x="78.74" y="33.02" size="1.778" layer="96"/>
</instance>
<instance part="P+6" gate="1" x="81.28" y="22.86" smashed="yes" rot="R270">
<attribute name="VALUE" x="76.2" y="25.4" size="1.778" layer="96"/>
</instance>
<instance part="GND1" gate="1" x="35.56" y="15.24" smashed="yes" rot="R90">
<attribute name="VALUE" x="38.1" y="12.7" size="1.778" layer="96" rot="R90"/>
</instance>
<instance part="P+7" gate="1" x="35.56" y="30.48" smashed="yes" rot="R270">
<attribute name="VALUE" x="33.02" y="33.02" size="1.778" layer="96"/>
</instance>
<instance part="P+8" gate="1" x="35.56" y="22.86" smashed="yes" rot="R270">
<attribute name="VALUE" x="30.48" y="25.4" size="1.778" layer="96"/>
</instance>
<instance part="U$3" gate="G$1" x="12.7" y="63.5" smashed="yes">
<attribute name="VALUE" x="10.16" y="58.674" size="1.778" layer="96" font="vector"/>
<attribute name="NAME" x="10.16" y="66.548" size="1.778" layer="95" font="vector"/>
</instance>
<instance part="U$4" gate="G$1" x="12.7" y="55.88" smashed="yes">
<attribute name="VALUE" x="10.16" y="51.054" size="1.778" layer="96" font="vector"/>
<attribute name="NAME" x="10.16" y="58.928" size="1.778" layer="95" font="vector"/>
</instance>
<instance part="U$5" gate="G$1" x="12.7" y="48.26" smashed="yes">
<attribute name="VALUE" x="10.16" y="43.434" size="1.778" layer="96" font="vector"/>
<attribute name="NAME" x="10.16" y="51.308" size="1.778" layer="95" font="vector"/>
</instance>
<instance part="U$6" gate="G$1" x="12.7" y="30.48" smashed="yes">
<attribute name="VALUE" x="10.16" y="25.654" size="1.778" layer="96" font="vector"/>
<attribute name="NAME" x="10.16" y="33.528" size="1.778" layer="95" font="vector"/>
</instance>
<instance part="U$7" gate="G$1" x="12.7" y="22.86" smashed="yes">
<attribute name="VALUE" x="10.16" y="18.034" size="1.778" layer="96" font="vector"/>
<attribute name="NAME" x="10.16" y="25.908" size="1.778" layer="95" font="vector"/>
</instance>
<instance part="U$8" gate="G$1" x="12.7" y="15.24" smashed="yes">
<attribute name="VALUE" x="10.16" y="10.414" size="1.778" layer="96" font="vector"/>
<attribute name="NAME" x="10.16" y="18.288" size="1.778" layer="95" font="vector"/>
</instance>
</instances>
<busses>
</busses>
<nets>
<net name="+5V" class="0">
<segment>
<pinref part="U$1" gate="G$1" pin="B"/>
<pinref part="P+2" gate="1" pin="+5V"/>
<wire x1="78.74" y1="55.88" x2="71.12" y2="55.88" width="0.1524" layer="91"/>
</segment>
<segment>
<pinref part="P+6" gate="1" pin="+5V"/>
<pinref part="U$2" gate="G$1" pin="B"/>
<wire x1="78.74" y1="22.86" x2="71.12" y2="22.86" width="0.1524" layer="91"/>
</segment>
<segment>
<pinref part="P+5" gate="1" pin="+5V"/>
<wire x1="33.02" y1="55.88" x2="20.32" y2="55.88" width="0.1524" layer="91"/>
<pinref part="U$4" gate="G$1" pin="2"/>
</segment>
<segment>
<pinref part="P+8" gate="1" pin="+5V"/>
<wire x1="33.02" y1="22.86" x2="20.32" y2="22.86" width="0.1524" layer="91"/>
<pinref part="U$7" gate="G$1" pin="2"/>
</segment>
</net>
<net name="V+" class="0">
<segment>
<pinref part="U$2" gate="G$1" pin="C"/>
<pinref part="P+1" gate="1" pin="V+"/>
<wire x1="71.12" y1="30.48" x2="78.74" y2="30.48" width="0.1524" layer="91"/>
</segment>
<segment>
<pinref part="U$1" gate="G$1" pin="C"/>
<pinref part="P+3" gate="1" pin="V+"/>
<wire x1="71.12" y1="63.5" x2="78.74" y2="63.5" width="0.1524" layer="91"/>
</segment>
<segment>
<pinref part="P+4" gate="1" pin="V+"/>
<wire x1="33.02" y1="63.5" x2="20.32" y2="63.5" width="0.1524" layer="91"/>
<pinref part="U$3" gate="G$1" pin="2"/>
</segment>
<segment>
<pinref part="P+7" gate="1" pin="V+"/>
<wire x1="33.02" y1="30.48" x2="20.32" y2="30.48" width="0.1524" layer="91"/>
<pinref part="U$6" gate="G$1" pin="2"/>
</segment>
</net>
<net name="GND" class="0">
<segment>
<pinref part="U$2" gate="G$1" pin="A"/>
<pinref part="GND3" gate="1" pin="GND"/>
<wire x1="71.12" y1="15.24" x2="78.74" y2="15.24" width="0.1524" layer="91"/>
</segment>
<segment>
<pinref part="U$1" gate="G$1" pin="A"/>
<pinref part="GND2" gate="1" pin="GND"/>
<wire x1="71.12" y1="48.26" x2="78.74" y2="48.26" width="0.1524" layer="91"/>
</segment>
<segment>
<pinref part="GND4" gate="1" pin="GND"/>
<wire x1="33.02" y1="48.26" x2="20.32" y2="48.26" width="0.1524" layer="91"/>
<pinref part="U$5" gate="G$1" pin="2"/>
</segment>
<segment>
<pinref part="GND1" gate="1" pin="GND"/>
<wire x1="33.02" y1="15.24" x2="20.32" y2="15.24" width="0.1524" layer="91"/>
<pinref part="U$8" gate="G$1" pin="2"/>
</segment>
</net>
</nets>
</sheet>
</sheets>
</schematic>
</drawing>
<compatibility>
<note version="8.2" severity="warning">
Since Version 8.2, EAGLE supports online libraries. The ids
of those online libraries will not be understood (or retained)
with this version.
</note>
<note version="8.3" severity="warning">
Since Version 8.3, EAGLE supports URNs for individual library
assets (packages, symbols, and devices). The URNs of those assets
will not be understood (or retained) with this version.
</note>
</compatibility>
</eagle>
