<?xml version="1.0" encoding="utf-8"?>
<!DOCTYPE eagle SYSTEM "eagle.dtd">
<eagle version="9.2.2">
<drawing>
<settings>
<setting alwaysvectorfont="no"/>
<setting verticaltext="up"/>
</settings>
<grid distance="0.1" unitdist="inch" unit="inch" style="lines" multiple="1" display="yes" altdistance="0.01" altunitdist="inch" altunit="inch"/>
<layers>
<layer number="1" name="Top" color="4" fill="1" visible="no" active="no"/>
<layer number="2" name="Route2" color="1" fill="3" visible="no" active="no"/>
<layer number="3" name="Route3" color="4" fill="3" visible="no" active="no"/>
<layer number="4" name="Route4" color="1" fill="4" visible="no" active="no"/>
<layer number="5" name="Route5" color="4" fill="4" visible="no" active="no"/>
<layer number="6" name="Route6" color="1" fill="8" visible="no" active="no"/>
<layer number="7" name="Route7" color="4" fill="8" visible="no" active="no"/>
<layer number="8" name="Route8" color="1" fill="2" visible="no" active="no"/>
<layer number="9" name="Route9" color="4" fill="2" visible="no" active="no"/>
<layer number="10" name="Route10" color="1" fill="7" visible="no" active="no"/>
<layer number="11" name="Route11" color="4" fill="7" visible="no" active="no"/>
<layer number="12" name="Route12" color="1" fill="5" visible="no" active="no"/>
<layer number="13" name="Route13" color="4" fill="5" visible="no" active="no"/>
<layer number="14" name="Route14" color="1" fill="6" visible="no" active="no"/>
<layer number="15" name="Route15" color="4" fill="6" visible="no" active="no"/>
<layer number="16" name="Bottom" color="1" fill="1" visible="no" active="no"/>
<layer number="17" name="Pads" color="2" fill="1" visible="no" active="no"/>
<layer number="18" name="Vias" color="2" fill="1" visible="no" active="no"/>
<layer number="19" name="Unrouted" color="6" fill="1" visible="no" active="no"/>
<layer number="20" name="Dimension" color="24" fill="1" visible="no" active="no"/>
<layer number="21" name="tPlace" color="7" fill="1" visible="no" active="no"/>
<layer number="22" name="bPlace" color="7" fill="1" visible="no" active="no"/>
<layer number="23" name="tOrigins" color="15" fill="1" visible="no" active="no"/>
<layer number="24" name="bOrigins" color="15" fill="1" visible="no" active="no"/>
<layer number="25" name="tNames" color="7" fill="1" visible="no" active="no"/>
<layer number="26" name="bNames" color="7" fill="1" visible="no" active="no"/>
<layer number="27" name="tValues" color="7" fill="1" visible="no" active="no"/>
<layer number="28" name="bValues" color="7" fill="1" visible="no" active="no"/>
<layer number="29" name="tStop" color="7" fill="3" visible="no" active="no"/>
<layer number="30" name="bStop" color="7" fill="6" visible="no" active="no"/>
<layer number="31" name="tCream" color="7" fill="4" visible="no" active="no"/>
<layer number="32" name="bCream" color="7" fill="5" visible="no" active="no"/>
<layer number="33" name="tFinish" color="6" fill="3" visible="no" active="no"/>
<layer number="34" name="bFinish" color="6" fill="6" visible="no" active="no"/>
<layer number="35" name="tGlue" color="7" fill="4" visible="no" active="no"/>
<layer number="36" name="bGlue" color="7" fill="5" visible="no" active="no"/>
<layer number="37" name="tTest" color="7" fill="1" visible="no" active="no"/>
<layer number="38" name="bTest" color="7" fill="1" visible="no" active="no"/>
<layer number="39" name="tKeepout" color="4" fill="11" visible="no" active="no"/>
<layer number="40" name="bKeepout" color="1" fill="11" visible="no" active="no"/>
<layer number="41" name="tRestrict" color="4" fill="10" visible="no" active="no"/>
<layer number="42" name="bRestrict" color="1" fill="10" visible="no" active="no"/>
<layer number="43" name="vRestrict" color="2" fill="10" visible="no" active="no"/>
<layer number="44" name="Drills" color="7" fill="1" visible="no" active="no"/>
<layer number="45" name="Holes" color="7" fill="1" visible="no" active="no"/>
<layer number="46" name="Milling" color="3" fill="1" visible="no" active="no"/>
<layer number="47" name="Measures" color="7" fill="1" visible="no" active="no"/>
<layer number="48" name="Document" color="7" fill="1" visible="no" active="no"/>
<layer number="49" name="Reference" color="7" fill="1" visible="no" active="no"/>
<layer number="50" name="dxf" color="7" fill="1" visible="no" active="no"/>
<layer number="51" name="tDocu" color="7" fill="1" visible="no" active="no"/>
<layer number="52" name="bDocu" color="7" fill="1" visible="no" active="no"/>
<layer number="53" name="tGND_GNDA" color="7" fill="9" visible="no" active="no"/>
<layer number="54" name="bGND_GNDA" color="1" fill="9" visible="no" active="no"/>
<layer number="56" name="wert" color="7" fill="1" visible="no" active="no"/>
<layer number="57" name="tCAD" color="7" fill="1" visible="no" active="no"/>
<layer number="59" name="tCarbon" color="7" fill="1" visible="no" active="no"/>
<layer number="60" name="bCarbon" color="7" fill="1" visible="no" active="no"/>
<layer number="88" name="SimResults" color="9" fill="1" visible="yes" active="yes"/>
<layer number="89" name="SimProbes" color="9" fill="1" visible="yes" active="yes"/>
<layer number="90" name="Modules" color="5" fill="1" visible="yes" active="yes"/>
<layer number="91" name="Nets" color="2" fill="1" visible="yes" active="yes"/>
<layer number="92" name="Busses" color="1" fill="1" visible="yes" active="yes"/>
<layer number="93" name="Pins" color="2" fill="1" visible="no" active="yes"/>
<layer number="94" name="Symbols" color="4" fill="1" visible="yes" active="yes"/>
<layer number="95" name="Names" color="7" fill="1" visible="yes" active="yes"/>
<layer number="96" name="Values" color="7" fill="1" visible="yes" active="yes"/>
<layer number="97" name="Info" color="7" fill="1" visible="yes" active="yes"/>
<layer number="98" name="Guide" color="6" fill="1" visible="yes" active="yes"/>
<layer number="99" name="SpiceOrder" color="7" fill="1" visible="yes" active="yes"/>
<layer number="100" name="Muster" color="7" fill="1" visible="no" active="no"/>
<layer number="101" name="Patch_Top" color="12" fill="4" visible="no" active="yes"/>
<layer number="102" name="Vscore" color="7" fill="1" visible="no" active="yes"/>
<layer number="103" name="tMap" color="7" fill="1" visible="no" active="yes"/>
<layer number="104" name="Name" color="7" fill="1" visible="no" active="yes"/>
<layer number="105" name="tPlate" color="7" fill="1" visible="no" active="yes"/>
<layer number="106" name="bPlate" color="7" fill="1" visible="no" active="yes"/>
<layer number="107" name="Crop" color="7" fill="1" visible="no" active="yes"/>
<layer number="108" name="tplace-old" color="10" fill="1" visible="no" active="yes"/>
<layer number="109" name="ref-old" color="11" fill="1" visible="no" active="yes"/>
<layer number="110" name="fp0" color="7" fill="1" visible="no" active="yes"/>
<layer number="111" name="LPC17xx" color="7" fill="1" visible="no" active="yes"/>
<layer number="112" name="tSilk" color="7" fill="1" visible="no" active="yes"/>
<layer number="113" name="IDFDebug" color="7" fill="1" visible="no" active="yes"/>
<layer number="114" name="Badge_Outline" color="7" fill="1" visible="no" active="yes"/>
<layer number="115" name="ReferenceISLANDS" color="7" fill="1" visible="no" active="yes"/>
<layer number="116" name="Patch_BOT" color="9" fill="4" visible="no" active="yes"/>
<layer number="117" name="BACKMAAT1" color="7" fill="1" visible="yes" active="yes"/>
<layer number="118" name="Rect_Pads" color="7" fill="1" visible="no" active="yes"/>
<layer number="119" name="KAP_TEKEN" color="7" fill="1" visible="yes" active="yes"/>
<layer number="120" name="KAP_MAAT1" color="7" fill="1" visible="yes" active="yes"/>
<layer number="121" name="_tsilk" color="7" fill="1" visible="no" active="yes"/>
<layer number="122" name="_bsilk" color="7" fill="1" visible="no" active="yes"/>
<layer number="123" name="tTestmark" color="7" fill="1" visible="no" active="yes"/>
<layer number="124" name="bTestmark" color="7" fill="1" visible="no" active="yes"/>
<layer number="125" name="_tNames" color="7" fill="1" visible="no" active="yes"/>
<layer number="126" name="_bNames" color="7" fill="1" visible="no" active="yes"/>
<layer number="127" name="_tValues" color="7" fill="1" visible="no" active="yes"/>
<layer number="128" name="_bValues" color="7" fill="1" visible="no" active="yes"/>
<layer number="129" name="Mask" color="7" fill="1" visible="no" active="yes"/>
<layer number="130" name="SMDSTROOK" color="7" fill="1" visible="yes" active="yes"/>
<layer number="131" name="tAdjust" color="7" fill="1" visible="no" active="yes"/>
<layer number="132" name="bAdjust" color="7" fill="1" visible="no" active="yes"/>
<layer number="133" name="bottom_silk" color="7" fill="1" visible="yes" active="yes"/>
<layer number="144" name="Drill_legend" color="7" fill="1" visible="no" active="yes"/>
<layer number="150" name="Notes" color="7" fill="1" visible="no" active="yes"/>
<layer number="151" name="HeatSink" color="7" fill="1" visible="no" active="yes"/>
<layer number="152" name="_bDocu" color="7" fill="1" visible="no" active="yes"/>
<layer number="153" name="FabDoc1" color="7" fill="1" visible="no" active="yes"/>
<layer number="154" name="FabDoc2" color="7" fill="1" visible="no" active="yes"/>
<layer number="155" name="FabDoc3" color="7" fill="1" visible="no" active="yes"/>
<layer number="199" name="Contour" color="7" fill="1" visible="no" active="yes"/>
<layer number="200" name="200bmp" color="1" fill="10" visible="no" active="yes"/>
<layer number="201" name="201bmp" color="2" fill="10" visible="no" active="yes"/>
<layer number="202" name="202bmp" color="3" fill="10" visible="no" active="yes"/>
<layer number="203" name="203bmp" color="4" fill="10" visible="no" active="yes"/>
<layer number="204" name="204bmp" color="5" fill="10" visible="no" active="yes"/>
<layer number="205" name="205bmp" color="6" fill="10" visible="no" active="yes"/>
<layer number="206" name="206bmp" color="7" fill="10" visible="no" active="yes"/>
<layer number="207" name="207bmp" color="8" fill="10" visible="no" active="yes"/>
<layer number="208" name="208bmp" color="9" fill="10" visible="no" active="yes"/>
<layer number="209" name="209bmp" color="7" fill="1" visible="no" active="yes"/>
<layer number="210" name="210bmp" color="7" fill="1" visible="no" active="yes"/>
<layer number="211" name="211bmp" color="7" fill="1" visible="no" active="yes"/>
<layer number="212" name="212bmp" color="7" fill="1" visible="no" active="yes"/>
<layer number="213" name="213bmp" color="7" fill="1" visible="no" active="yes"/>
<layer number="214" name="214bmp" color="7" fill="1" visible="no" active="yes"/>
<layer number="215" name="215bmp" color="7" fill="1" visible="no" active="yes"/>
<layer number="216" name="216bmp" color="7" fill="1" visible="no" active="yes"/>
<layer number="217" name="217bmp" color="18" fill="1" visible="no" active="no"/>
<layer number="218" name="218bmp" color="19" fill="1" visible="no" active="no"/>
<layer number="219" name="219bmp" color="20" fill="1" visible="no" active="no"/>
<layer number="220" name="220bmp" color="21" fill="1" visible="no" active="no"/>
<layer number="221" name="221bmp" color="22" fill="1" visible="no" active="no"/>
<layer number="222" name="222bmp" color="23" fill="1" visible="no" active="no"/>
<layer number="223" name="223bmp" color="24" fill="1" visible="no" active="no"/>
<layer number="224" name="224bmp" color="25" fill="1" visible="no" active="no"/>
<layer number="225" name="225bmp" color="7" fill="1" visible="no" active="yes"/>
<layer number="226" name="226bmp" color="7" fill="1" visible="no" active="yes"/>
<layer number="227" name="227bmp" color="7" fill="1" visible="no" active="yes"/>
<layer number="228" name="228bmp" color="7" fill="1" visible="no" active="yes"/>
<layer number="229" name="229bmp" color="7" fill="1" visible="no" active="yes"/>
<layer number="230" name="230bmp" color="7" fill="1" visible="no" active="yes"/>
<layer number="231" name="231bmp" color="7" fill="1" visible="no" active="yes"/>
<layer number="232" name="Eagle3D_PG2" color="7" fill="1" visible="no" active="yes"/>
<layer number="233" name="Eagle3D_PG3" color="7" fill="1" visible="no" active="yes"/>
<layer number="248" name="Housing" color="7" fill="1" visible="no" active="yes"/>
<layer number="249" name="Edge" color="7" fill="1" visible="no" active="yes"/>
<layer number="250" name="Descript" color="3" fill="1" visible="no" active="no"/>
<layer number="251" name="SMDround" color="12" fill="11" visible="no" active="no"/>
<layer number="254" name="cooling" color="7" fill="1" visible="no" active="yes"/>
<layer number="255" name="routoute" color="7" fill="1" visible="no" active="yes"/>
</layers>
<schematic xreflabel="%F%N/%S.%C%R" xrefpart="/%S.%C%R">
<libraries>
<library name="supply1" urn="urn:adsk.eagle:library:371">
<description>&lt;b&gt;Supply Symbols&lt;/b&gt;&lt;p&gt;
 GND, VCC, 0V, +5V, -5V, etc.&lt;p&gt;
 Please keep in mind, that these devices are necessary for the
 automatic wiring of the supply signals.&lt;p&gt;
 The pin name defined in the symbol is identical to the net which is to be wired automatically.&lt;p&gt;
 In this library the device names are the same as the pin names of the symbols, therefore the correct signal names appear next to the supply symbols in the schematic.&lt;p&gt;
 &lt;author&gt;Created by librarian@cadsoft.de&lt;/author&gt;</description>
<packages>
</packages>
<symbols>
<symbol name="GND" urn="urn:adsk.eagle:symbol:26925/1" library_version="1">
<wire x1="-1.905" y1="0" x2="1.905" y2="0" width="0.254" layer="94"/>
<text x="-2.54" y="-2.54" size="1.778" layer="96">&gt;VALUE</text>
<pin name="GND" x="0" y="2.54" visible="off" length="short" direction="sup" rot="R270"/>
</symbol>
<symbol name="V+" urn="urn:adsk.eagle:symbol:26939/1" library_version="1">
<wire x1="0.889" y1="-1.27" x2="0" y2="0.127" width="0.254" layer="94"/>
<wire x1="0" y1="0.127" x2="-0.889" y2="-1.27" width="0.254" layer="94"/>
<wire x1="-0.889" y1="-1.27" x2="0.889" y2="-1.27" width="0.254" layer="94"/>
<text x="-2.54" y="-2.54" size="1.778" layer="96" rot="R90">&gt;VALUE</text>
<pin name="V+" x="0" y="-2.54" visible="off" length="short" direction="sup" rot="R90"/>
</symbol>
</symbols>
<devicesets>
<deviceset name="GND" urn="urn:adsk.eagle:component:26954/1" prefix="GND" library_version="1">
<description>&lt;b&gt;SUPPLY SYMBOL&lt;/b&gt;</description>
<gates>
<gate name="1" symbol="GND" x="0" y="0"/>
</gates>
<devices>
<device name="">
<technologies>
<technology name=""/>
</technologies>
</device>
</devices>
</deviceset>
<deviceset name="V+" urn="urn:adsk.eagle:component:26966/1" prefix="P+" library_version="1">
<description>&lt;b&gt;SUPPLY SYMBOL&lt;/b&gt;</description>
<gates>
<gate name="1" symbol="V+" x="0" y="0"/>
</gates>
<devices>
<device name="">
<technologies>
<technology name=""/>
</technologies>
</device>
</devices>
</deviceset>
</devicesets>
</library>
<library name="connector">
<packages>
<package name="AVX_9159_3_PCB">
<wire x1="-6" y1="0" x2="6" y2="0" width="0.127" layer="51"/>
<smd name="P$M1" x="-5.435" y="-3.75" dx="1.6" dy="1.5" layer="1"/>
<smd name="P$C" x="-3" y="-4.38" dx="1.2" dy="1.6" layer="1"/>
<rectangle x1="-5.5" y1="-5" x2="5.5" y2="0.2" layer="51"/>
<smd name="P$B" x="0" y="-4.38" dx="1.2" dy="1.6" layer="1"/>
<smd name="P$A" x="3" y="-4.38" dx="1.2" dy="1.6" layer="1"/>
<smd name="P$M2" x="5.435" y="-3.75" dx="1.6" dy="1.5" layer="1"/>
</package>
<package name="PDBCONN_ABC">
<circle x="0" y="0" radius="1.6" width="0.127" layer="51"/>
<circle x="0" y="6.5" radius="1.6" width="0.127" layer="51"/>
<circle x="0" y="6.5" radius="2.75" width="0.127" layer="51"/>
<circle x="0" y="0" radius="2.75" width="0.127" layer="51"/>
<wire x1="0" y1="1.5" x2="0" y2="5" width="0.127" layer="51"/>
<wire x1="0" y1="8" x2="0" y2="10" width="0.127" layer="51"/>
<wire x1="0" y1="10" x2="2.6" y2="10" width="0.127" layer="51"/>
<polygon width="0.127" layer="1">
<vertex x="0.4" y="4.5" curve="90"/>
<vertex x="2" y="6.2"/>
<vertex x="2" y="6.6" curve="90"/>
<vertex x="0.4" y="8.4"/>
<vertex x="0.4" y="9.6"/>
<vertex x="3.1" y="9.6"/>
<vertex x="3.1" y="3.4"/>
<vertex x="0.4" y="3.4"/>
</polygon>
<polygon width="0.127" layer="1">
<vertex x="0.4" y="-2" curve="90"/>
<vertex x="2" y="-0.1"/>
<vertex x="2" y="0.3" curve="90"/>
<vertex x="0.4" y="2"/>
<vertex x="0.4" y="3.1"/>
<vertex x="3.1" y="3.1"/>
<vertex x="3.1" y="-3.1"/>
<vertex x="0.4" y="-3.1"/>
</polygon>
<pad name="P$B1" x="2.5" y="-2.5" drill="0.4" shape="square" stop="no" thermals="no"/>
<pad name="P$B2" x="2.5" y="2.5" drill="0.4" shape="square" stop="no" thermals="no"/>
<pad name="P$C1" x="2.5" y="4" drill="0.4" shape="square" stop="no" thermals="no"/>
<pad name="P$C2" x="2.5" y="9" drill="0.4" shape="square" stop="no" thermals="no"/>
<polygon width="0.127" layer="29">
<vertex x="-3" y="6.5" curve="-90"/>
<vertex x="0" y="9.5" curve="-90"/>
<vertex x="3" y="6.5" curve="-90"/>
<vertex x="0" y="3.5" curve="-90"/>
</polygon>
<polygon width="0.127" layer="29">
<vertex x="-3" y="0" curve="-90"/>
<vertex x="0" y="3" curve="-90"/>
<vertex x="3" y="0" curve="-90"/>
<vertex x="0" y="-3" curve="-90"/>
</polygon>
<polygon width="0.127" layer="30">
<vertex x="-3" y="6.5" curve="-90"/>
<vertex x="0" y="9.5" curve="-90"/>
<vertex x="3" y="6.5" curve="-90"/>
<vertex x="0" y="3.5" curve="-90"/>
</polygon>
<polygon width="0.127" layer="30">
<vertex x="-3" y="0" curve="-90"/>
<vertex x="0" y="3" curve="-90"/>
<vertex x="3" y="0" curve="-90"/>
<vertex x="0" y="-3" curve="-90"/>
</polygon>
<polygon width="0.127" layer="16">
<vertex x="0.4" y="4.5" curve="90"/>
<vertex x="2" y="6.2"/>
<vertex x="2" y="6.6" curve="90"/>
<vertex x="0.4" y="8.4"/>
<vertex x="0.4" y="9.6"/>
<vertex x="3.1" y="9.6"/>
<vertex x="3.1" y="3.4"/>
<vertex x="0.4" y="3.4"/>
</polygon>
<polygon width="0.127" layer="16">
<vertex x="0.4" y="-2" curve="90"/>
<vertex x="2" y="-0.1"/>
<vertex x="2" y="0.3" curve="90"/>
<vertex x="0.4" y="2"/>
<vertex x="0.4" y="3.1"/>
<vertex x="3.1" y="3.1"/>
<vertex x="3.1" y="-3.1"/>
<vertex x="0.4" y="-3.1"/>
</polygon>
<circle x="0" y="-6.5" radius="1.6" width="0.127" layer="51"/>
<circle x="0" y="-6.5" radius="2.75" width="0.127" layer="51"/>
<polygon width="0.127" layer="1">
<vertex x="0.4" y="-8.5" curve="90"/>
<vertex x="2" y="-6.6"/>
<vertex x="2" y="-6.2" curve="90"/>
<vertex x="0.4" y="-4.5"/>
<vertex x="0.4" y="-3.4"/>
<vertex x="3.1" y="-3.4"/>
<vertex x="3.1" y="-9.6"/>
<vertex x="0.4" y="-9.6"/>
</polygon>
<pad name="P$A1" x="2.5" y="-9" drill="0.4" shape="square" stop="no" thermals="no"/>
<pad name="P$A2" x="2.5" y="-4" drill="0.4" shape="square" stop="no" thermals="no"/>
<polygon width="0.127" layer="30">
<vertex x="-3" y="-6.5" curve="-90"/>
<vertex x="0" y="-3.5" curve="-90"/>
<vertex x="3" y="-6.5" curve="-90"/>
<vertex x="0" y="-9.5" curve="-90"/>
</polygon>
<polygon width="0.127" layer="16">
<vertex x="0.4" y="-8.5" curve="90"/>
<vertex x="2" y="-6.6"/>
<vertex x="2" y="-6.2" curve="90"/>
<vertex x="0.4" y="-4.5"/>
<vertex x="0.4" y="-3.4"/>
<vertex x="3.1" y="-3.4"/>
<vertex x="3.1" y="-9.6"/>
<vertex x="0.4" y="-9.6"/>
</polygon>
<wire x1="0" y1="-5" x2="0" y2="-1.5" width="0.127" layer="51"/>
<wire x1="0" y1="-10" x2="0" y2="-8" width="0.127" layer="51"/>
<wire x1="0" y1="-10" x2="2.6" y2="-10" width="0.127" layer="51"/>
<polygon width="0.127" layer="29">
<vertex x="-3" y="-6.7" curve="-90"/>
<vertex x="0" y="-3.5" curve="-90"/>
<vertex x="3" y="-6.35" curve="-90"/>
<vertex x="0" y="-9.5" curve="-90"/>
</polygon>
</package>
</packages>
<symbols>
<symbol name="CONN_03_SQUIDPOW">
<description>&lt;h3&gt;2 Pin Connection&lt;/h3&gt;</description>
<wire x1="3.81" y1="-7.62" x2="-5.08" y2="-7.62" width="0.4064" layer="94"/>
<wire x1="1.27" y1="2.54" x2="2.54" y2="2.54" width="0.6096" layer="94"/>
<wire x1="1.27" y1="-5.08" x2="2.54" y2="-5.08" width="0.6096" layer="94"/>
<wire x1="-5.08" y1="12.7" x2="-5.08" y2="-7.62" width="0.4064" layer="94"/>
<wire x1="3.81" y1="-7.62" x2="3.81" y2="12.7" width="0.4064" layer="94"/>
<wire x1="-5.08" y1="12.7" x2="3.81" y2="12.7" width="0.4064" layer="94"/>
<text x="-2.54" y="-10.16" size="1.778" layer="96" font="vector">&gt;VALUE</text>
<text x="-2.54" y="13.208" size="1.778" layer="95" font="vector">&gt;NAME</text>
<pin name="GND" x="7.62" y="-5.08" length="middle" direction="pas" swaplevel="1" rot="R180"/>
<pin name="5V" x="7.62" y="2.54" length="middle" direction="pas" swaplevel="1" rot="R180"/>
<pin name="24V" x="7.62" y="10.16" length="middle" direction="pas" swaplevel="1" rot="R180"/>
<wire x1="1.27" y1="10.16" x2="2.54" y2="10.16" width="0.6096" layer="94"/>
</symbol>
</symbols>
<devicesets>
<deviceset name="SQUIDPOWER_3">
<gates>
<gate name="G$1" symbol="CONN_03_SQUIDPOW" x="0" y="0"/>
</gates>
<devices>
<device name="" package="AVX_9159_3_PCB">
<connects>
<connect gate="G$1" pin="24V" pad="P$C"/>
<connect gate="G$1" pin="5V" pad="P$B"/>
<connect gate="G$1" pin="GND" pad="P$A"/>
</connects>
<technologies>
<technology name=""/>
</technologies>
</device>
<device name="PDB_SPLIT" package="PDBCONN_ABC">
<connects>
<connect gate="G$1" pin="24V" pad="P$C1 P$C2"/>
<connect gate="G$1" pin="5V" pad="P$B1 P$B2"/>
<connect gate="G$1" pin="GND" pad="P$A1 P$A2"/>
</connects>
<technologies>
<technology name=""/>
</technologies>
</device>
</devices>
</deviceset>
</devicesets>
</library>
<library name="passives">
<packages>
<package name="1206">
<wire x1="-0.965" y1="0.787" x2="0.965" y2="0.787" width="0.1016" layer="51"/>
<wire x1="-0.965" y1="-0.787" x2="0.965" y2="-0.787" width="0.1016" layer="51"/>
<smd name="1" x="-1.4" y="0" dx="1.6" dy="1.8" layer="1"/>
<smd name="2" x="1.4" y="0" dx="1.6" dy="1.8" layer="1"/>
<text x="-1.27" y="1.143" size="1.016" layer="25">&gt;NAME</text>
<text x="-1.397" y="-2.794" size="1.016" layer="27">&gt;VALUE</text>
<rectangle x1="-1.7018" y1="-0.8509" x2="-0.9517" y2="0.8491" layer="51"/>
<rectangle x1="0.9517" y1="-0.8491" x2="1.7018" y2="0.8509" layer="51"/>
<rectangle x1="-0.1999" y1="-0.4001" x2="0.1999" y2="0.4001" layer="35"/>
</package>
<package name="R2010">
<description>&lt;b&gt;RESISTOR&lt;/b&gt;&lt;p&gt;
chip</description>
<wire x1="-1.662" y1="1.245" x2="1.662" y2="1.245" width="0.1524" layer="51"/>
<wire x1="-1.637" y1="-1.245" x2="1.687" y2="-1.245" width="0.1524" layer="51"/>
<wire x1="-3.473" y1="1.483" x2="3.473" y2="1.483" width="0.0508" layer="39"/>
<wire x1="3.473" y1="1.483" x2="3.473" y2="-1.483" width="0.0508" layer="39"/>
<wire x1="3.473" y1="-1.483" x2="-3.473" y2="-1.483" width="0.0508" layer="39"/>
<wire x1="-3.473" y1="-1.483" x2="-3.473" y2="1.483" width="0.0508" layer="39"/>
<wire x1="-1.027" y1="1.245" x2="1.027" y2="1.245" width="0.1524" layer="21"/>
<wire x1="-1.002" y1="-1.245" x2="1.016" y2="-1.245" width="0.1524" layer="21"/>
<smd name="1" x="-2.2" y="0" dx="1.8" dy="2.7" layer="1"/>
<smd name="2" x="2.2" y="0" dx="1.8" dy="2.7" layer="1"/>
<text x="-2.54" y="1.5875" size="1.016" layer="25">&gt;NAME</text>
<text x="-2.54" y="-3.302" size="1.016" layer="27">&gt;VALUE</text>
<rectangle x1="-2.4892" y1="-1.3208" x2="-1.6393" y2="1.3292" layer="51"/>
<rectangle x1="1.651" y1="-1.3208" x2="2.5009" y2="1.3292" layer="51"/>
</package>
<package name="0805">
<smd name="1" x="-0.95" y="0" dx="0.7" dy="1.2" layer="1"/>
<smd name="2" x="0.95" y="0" dx="0.7" dy="1.2" layer="1"/>
<text x="-0.762" y="0.8255" size="1.016" layer="25">&gt;NAME</text>
<text x="-1.016" y="-2.032" size="1.016" layer="27">&gt;VALUE</text>
</package>
<package name="0603-RES">
<wire x1="-1.473" y1="0.983" x2="1.473" y2="0.983" width="0.0508" layer="39"/>
<wire x1="1.473" y1="0.983" x2="1.473" y2="-0.983" width="0.0508" layer="39"/>
<wire x1="1.473" y1="-0.983" x2="-1.473" y2="-0.983" width="0.0508" layer="39"/>
<wire x1="-1.473" y1="-0.983" x2="-1.473" y2="0.983" width="0.0508" layer="39"/>
<wire x1="-0.356" y1="0.432" x2="0.356" y2="0.432" width="0.1016" layer="51"/>
<wire x1="-0.356" y1="-0.419" x2="0.356" y2="-0.419" width="0.1016" layer="51"/>
<smd name="1" x="-0.85" y="0" dx="1.1" dy="1" layer="1"/>
<smd name="2" x="0.85" y="0" dx="1.1" dy="1" layer="1"/>
<text x="-0.889" y="1.397" size="1.016" layer="25">&gt;NAME</text>
<text x="-1.016" y="-2.413" size="1.016" layer="27" ratio="10">&gt;VALUE</text>
<rectangle x1="-0.8382" y1="-0.4699" x2="-0.3381" y2="0.4801" layer="51"/>
<rectangle x1="0.3302" y1="-0.4699" x2="0.8303" y2="0.4801" layer="51"/>
<rectangle x1="-0.1999" y1="-0.3" x2="0.1999" y2="0.3" layer="35"/>
<rectangle x1="-0.2286" y1="-0.381" x2="0.2286" y2="0.381" layer="21"/>
</package>
<package name="0402-RES">
<description>&lt;b&gt;CAPACITOR&lt;/b&gt;&lt;p&gt;
chip</description>
<wire x1="-0.245" y1="0.224" x2="0.245" y2="0.224" width="0.1524" layer="51"/>
<wire x1="0.245" y1="-0.224" x2="-0.245" y2="-0.224" width="0.1524" layer="51"/>
<wire x1="-1.473" y1="0.483" x2="1.473" y2="0.483" width="0.0508" layer="39"/>
<wire x1="1.473" y1="0.483" x2="1.473" y2="-0.483" width="0.0508" layer="39"/>
<wire x1="1.473" y1="-0.483" x2="-1.473" y2="-0.483" width="0.0508" layer="39"/>
<wire x1="-1.473" y1="-0.483" x2="-1.473" y2="0.483" width="0.0508" layer="39"/>
<smd name="1" x="-0.65" y="0" dx="0.7" dy="0.9" layer="1"/>
<smd name="2" x="0.65" y="0" dx="0.7" dy="0.9" layer="1"/>
<text x="-0.889" y="0.6985" size="1.016" layer="25">&gt;NAME</text>
<text x="-1.0795" y="-1.778" size="1.016" layer="27">&gt;VALUE</text>
<rectangle x1="-0.554" y1="-0.3048" x2="-0.254" y2="0.2951" layer="51"/>
<rectangle x1="0.2588" y1="-0.3048" x2="0.5588" y2="0.2951" layer="51"/>
<rectangle x1="-0.1999" y1="-0.3" x2="0.1999" y2="0.3" layer="35"/>
<rectangle x1="-0.2032" y1="-0.3556" x2="0.2032" y2="0.3556" layer="21"/>
</package>
<package name="R2512">
<wire x1="-2.362" y1="1.473" x2="2.387" y2="1.473" width="0.1524" layer="51"/>
<wire x1="-2.362" y1="-1.473" x2="2.387" y2="-1.473" width="0.1524" layer="51"/>
<smd name="1" x="-2.8" y="0" dx="1.8" dy="3.2" layer="1"/>
<smd name="2" x="2.8" y="0" dx="1.8" dy="3.2" layer="1"/>
<text x="-2.54" y="1.905" size="1.016" layer="25">&gt;NAME</text>
<text x="-2.54" y="-3.175" size="1.016" layer="27">&gt;VALUE</text>
<rectangle x1="-3.2004" y1="-1.5494" x2="-2.3505" y2="1.5507" layer="51"/>
<rectangle x1="2.3622" y1="-1.5494" x2="3.2121" y2="1.5507" layer="51"/>
</package>
<package name="TO220ACS">
<description>&lt;B&gt;DIODE&lt;/B&gt;&lt;p&gt;
2-lead molded, vertical</description>
<wire x1="5.08" y1="-1.143" x2="4.953" y2="-4.064" width="0.1524" layer="21"/>
<wire x1="4.699" y1="-4.318" x2="4.953" y2="-4.064" width="0.1524" layer="21"/>
<wire x1="4.699" y1="-4.318" x2="-4.699" y2="-4.318" width="0.1524" layer="21"/>
<wire x1="-4.953" y1="-4.064" x2="-4.699" y2="-4.318" width="0.1524" layer="21"/>
<wire x1="-4.953" y1="-4.064" x2="-5.08" y2="-1.143" width="0.1524" layer="21"/>
<circle x="-4.4958" y="-3.7084" radius="0.254" width="0" layer="21"/>
<pad name="C" x="-2.54" y="-2.54" drill="1.016" shape="long" rot="R90"/>
<pad name="A" x="2.54" y="-2.54" drill="1.016" shape="long" rot="R90"/>
<text x="-5.08" y="-6.0452" size="1.016" layer="25" ratio="10">&gt;NAME</text>
<text x="-5.08" y="-7.62" size="1.016" layer="27" ratio="10">&gt;VALUE</text>
<rectangle x1="-5.334" y1="-0.762" x2="5.334" y2="0" layer="21"/>
<rectangle x1="-5.334" y1="-1.27" x2="-3.429" y2="-0.762" layer="21"/>
<rectangle x1="-3.429" y1="-1.27" x2="-1.651" y2="-0.762" layer="51"/>
<rectangle x1="3.429" y1="-1.27" x2="5.334" y2="-0.762" layer="21"/>
<rectangle x1="1.651" y1="-1.27" x2="3.429" y2="-0.762" layer="51"/>
<rectangle x1="-1.651" y1="-1.27" x2="1.651" y2="-0.762" layer="21"/>
</package>
<package name="SOD123">
<description>&lt;b&gt;SMALL OUTLINE DIODE&lt;/b&gt;</description>
<wire x1="-2.973" y1="0.983" x2="2.973" y2="0.983" width="0.0508" layer="39"/>
<wire x1="2.973" y1="-0.983" x2="-2.973" y2="-0.983" width="0.0508" layer="39"/>
<wire x1="-2.973" y1="-0.983" x2="-2.973" y2="0.983" width="0.0508" layer="39"/>
<wire x1="2.973" y1="0.983" x2="2.973" y2="-0.983" width="0.0508" layer="39"/>
<wire x1="-1.321" y1="0.787" x2="1.321" y2="0.787" width="0.1016" layer="51"/>
<wire x1="-1.321" y1="-0.787" x2="1.321" y2="-0.787" width="0.1016" layer="51"/>
<wire x1="-1.321" y1="-0.787" x2="-1.321" y2="0.787" width="0.1016" layer="51"/>
<wire x1="1.321" y1="-0.787" x2="1.321" y2="0.787" width="0.1016" layer="51"/>
<wire x1="-1" y1="0" x2="0" y2="0.5" width="0.2032" layer="51"/>
<wire x1="0" y1="0.5" x2="0" y2="-0.5" width="0.2032" layer="51"/>
<wire x1="0" y1="-0.5" x2="-1" y2="0" width="0.2032" layer="51"/>
<wire x1="-1" y1="0.5" x2="-1" y2="0" width="0.2032" layer="51"/>
<wire x1="-1" y1="0" x2="-1" y2="-0.5" width="0.2032" layer="51"/>
<smd name="CATHODE" x="-1.7" y="0" dx="1.6" dy="0.8" layer="1"/>
<smd name="ANODE" x="1.7" y="0" dx="1.6" dy="0.8" layer="1"/>
<text x="-1.905" y="1.905" size="1.27" layer="25">&gt;NAME</text>
<text x="-1.905" y="-3.175" size="1.27" layer="27">&gt;VALUE</text>
<rectangle x1="-1.9558" y1="-0.3048" x2="-1.3716" y2="0.3048" layer="51" rot="R180"/>
<rectangle x1="1.3716" y1="-0.3048" x2="1.9558" y2="0.3048" layer="51" rot="R180"/>
<rectangle x1="-0.4001" y1="-0.7" x2="0.4001" y2="0.7" layer="35"/>
<wire x1="-2.667" y1="0.889" x2="-2.667" y2="-0.889" width="0.127" layer="21"/>
<wire x1="-2.921" y1="0.889" x2="-2.921" y2="-0.889" width="0.127" layer="21"/>
<wire x1="-2.921" y1="-0.889" x2="2.794" y2="-0.889" width="0.127" layer="21"/>
<wire x1="2.794" y1="-0.889" x2="2.794" y2="0.889" width="0.127" layer="21"/>
<wire x1="2.794" y1="0.889" x2="-2.921" y2="0.889" width="0.127" layer="21"/>
</package>
<package name="0805-DIODE">
<smd name="1" x="-0.85" y="0" dx="1.1" dy="1" layer="1"/>
<smd name="2" x="0.85" y="0" dx="1.1" dy="1" layer="1"/>
<text x="-0.889" y="1.397" size="0.3048" layer="25">&gt;NAME</text>
<text x="-1.016" y="-1.143" size="0.3048" layer="27" ratio="10">&gt;VALUE</text>
<rectangle x1="-0.1999" y1="-0.3" x2="0.1999" y2="0.3" layer="35"/>
<wire x1="-0.1778" y1="0.4318" x2="0.1778" y2="0" width="0.127" layer="21"/>
<wire x1="0.1778" y1="0" x2="-0.1778" y2="-0.4318" width="0.127" layer="21"/>
<wire x1="-0.1778" y1="0.4318" x2="-0.1778" y2="-0.4318" width="0.127" layer="21"/>
</package>
<package name="SOD-123HE">
<smd name="P$1" x="0.8" y="0" dx="2.4" dy="1.4" layer="1"/>
<smd name="P$2" x="-1.55" y="0" dx="0.9" dy="1.4" layer="1"/>
<wire x1="-1.4" y1="-0.9" x2="0" y2="-0.9" width="0.127" layer="51"/>
<wire x1="0" y1="-0.9" x2="0.9" y2="-0.9" width="0.127" layer="51"/>
<wire x1="0.9" y1="-0.9" x2="1.4" y2="-0.9" width="0.127" layer="51"/>
<wire x1="1.4" y1="-0.9" x2="1.4" y2="0.9" width="0.127" layer="51"/>
<wire x1="1.4" y1="0.9" x2="0.9" y2="0.9" width="0.127" layer="51"/>
<wire x1="0.9" y1="0.9" x2="0" y2="0.9" width="0.127" layer="51"/>
<wire x1="0" y1="0.9" x2="-1.4" y2="0.9" width="0.127" layer="51"/>
<wire x1="-1.4" y1="0.9" x2="-1.4" y2="-0.9" width="0.127" layer="51"/>
<wire x1="0.9" y1="0.9" x2="0.9" y2="0" width="0.127" layer="51"/>
<wire x1="0.9" y1="0" x2="0.9" y2="-0.9" width="0.127" layer="51"/>
<wire x1="0.9" y1="0" x2="0" y2="0.9" width="0.127" layer="51"/>
<wire x1="0" y1="0.9" x2="0" y2="-0.9" width="0.127" layer="51"/>
<wire x1="0" y1="-0.9" x2="0.9" y2="0" width="0.127" layer="51"/>
<wire x1="1.4" y1="0.9" x2="0.5" y2="0.9" width="0.127" layer="21"/>
<wire x1="1.4" y1="-0.9" x2="0.5" y2="-0.9" width="0.127" layer="21"/>
</package>
<package name="SMA-403D">
<smd name="P$1" x="-2" y="0" dx="2" dy="2" layer="1" rot="R180"/>
<smd name="P$2" x="2" y="0" dx="2" dy="2" layer="1" rot="R180"/>
<wire x1="-2.2" y1="1.2" x2="-2.2" y2="1.6" width="0.127" layer="21"/>
<wire x1="-2.2" y1="1.6" x2="-1.2" y2="1.6" width="0.127" layer="21"/>
<wire x1="-2.2" y1="-1.2" x2="-2.2" y2="-1.6" width="0.127" layer="21"/>
<wire x1="-2.2" y1="-1.6" x2="-1.2" y2="-1.6" width="0.127" layer="21"/>
<wire x1="1.2" y1="-1.6" x2="2" y2="-1.6" width="0.127" layer="21"/>
<wire x1="1.2" y1="1.6" x2="2" y2="1.6" width="0.127" layer="21"/>
</package>
</packages>
<symbols>
<symbol name="RESISTOR">
<wire x1="-2.54" y1="0" x2="-2.159" y2="1.016" width="0.1524" layer="94"/>
<wire x1="-2.159" y1="1.016" x2="-1.524" y2="-1.016" width="0.1524" layer="94"/>
<wire x1="-1.524" y1="-1.016" x2="-0.889" y2="1.016" width="0.1524" layer="94"/>
<wire x1="-0.889" y1="1.016" x2="-0.254" y2="-1.016" width="0.1524" layer="94"/>
<wire x1="-0.254" y1="-1.016" x2="0.381" y2="1.016" width="0.1524" layer="94"/>
<wire x1="0.381" y1="1.016" x2="1.016" y2="-1.016" width="0.1524" layer="94"/>
<wire x1="1.016" y1="-1.016" x2="1.651" y2="1.016" width="0.1524" layer="94"/>
<wire x1="1.651" y1="1.016" x2="2.286" y2="-1.016" width="0.1524" layer="94"/>
<wire x1="2.286" y1="-1.016" x2="2.54" y2="0" width="0.1524" layer="94"/>
<text x="-3.81" y="1.4986" size="1.778" layer="95">&gt;NAME</text>
<text x="-3.81" y="-3.302" size="1.778" layer="96">&gt;VALUE</text>
<pin name="2" x="5.08" y="0" visible="off" length="short" direction="pas" swaplevel="1" rot="R180"/>
<pin name="1" x="-5.08" y="0" visible="off" length="short" direction="pas" swaplevel="1"/>
<text x="-3.81" y="-6.858" size="1.27" layer="97">&gt;PRECISION</text>
<text x="-3.81" y="-5.08" size="1.27" layer="97">&gt;PACKAGE</text>
</symbol>
<symbol name="D">
<wire x1="-1.27" y1="-1.27" x2="1.27" y2="0" width="0.254" layer="94"/>
<wire x1="1.27" y1="0" x2="-1.27" y2="1.27" width="0.254" layer="94"/>
<wire x1="1.27" y1="1.27" x2="1.27" y2="0" width="0.254" layer="94"/>
<wire x1="-1.27" y1="1.27" x2="-1.27" y2="-1.27" width="0.254" layer="94"/>
<wire x1="1.27" y1="0" x2="1.27" y2="-1.27" width="0.254" layer="94"/>
<text x="2.54" y="0.4826" size="1.778" layer="95">&gt;NAME</text>
<text x="2.54" y="-2.3114" size="1.778" layer="96">&gt;VALUE</text>
<pin name="A" x="-2.54" y="0" visible="off" length="short" direction="pas"/>
<pin name="C" x="2.54" y="0" visible="off" length="short" direction="pas" rot="R180"/>
</symbol>
</symbols>
<devicesets>
<deviceset name="RESISTOR" prefix="R" uservalue="yes">
<description>&lt;b&gt;Resistor&lt;/b&gt;
Basic schematic elements and footprints for 0603, 1206, and PTH resistors.</description>
<gates>
<gate name="G$1" symbol="RESISTOR" x="0" y="0"/>
</gates>
<devices>
<device name="1206" package="1206">
<connects>
<connect gate="G$1" pin="1" pad="1"/>
<connect gate="G$1" pin="2" pad="2"/>
</connects>
<technologies>
<technology name="">
<attribute name="PACKAGE" value="1206" constant="no"/>
<attribute name="PRECISION" value="" constant="no"/>
</technology>
</technologies>
</device>
<device name="2010" package="R2010">
<connects>
<connect gate="G$1" pin="1" pad="1"/>
<connect gate="G$1" pin="2" pad="2"/>
</connects>
<technologies>
<technology name="">
<attribute name="PACKAGE" value="2010"/>
<attribute name="PRECISION" value="" constant="no"/>
</technology>
</technologies>
</device>
<device name="0805-RES" package="0805">
<connects>
<connect gate="G$1" pin="1" pad="1"/>
<connect gate="G$1" pin="2" pad="2"/>
</connects>
<technologies>
<technology name="">
<attribute name="PACKAGE" value="0805"/>
<attribute name="PRECISION" value="" constant="no"/>
</technology>
</technologies>
</device>
<device name="0603-RES" package="0603-RES">
<connects>
<connect gate="G$1" pin="1" pad="1"/>
<connect gate="G$1" pin="2" pad="2"/>
</connects>
<technologies>
<technology name="">
<attribute name="PACKAGE" value="0603"/>
<attribute name="PRECISION" value="" constant="no"/>
</technology>
</technologies>
</device>
<device name="0402-RES" package="0402-RES">
<connects>
<connect gate="G$1" pin="1" pad="1"/>
<connect gate="G$1" pin="2" pad="2"/>
</connects>
<technologies>
<technology name="">
<attribute name="PACKAGE" value="0402"/>
<attribute name="PRECISION" value="" constant="no"/>
</technology>
</technologies>
</device>
<device name="2512" package="R2512">
<connects>
<connect gate="G$1" pin="1" pad="1"/>
<connect gate="G$1" pin="2" pad="2"/>
</connects>
<technologies>
<technology name="">
<attribute name="PACKAGE" value="2512"/>
<attribute name="PRECISION" value="" constant="no"/>
</technology>
</technologies>
</device>
<device name="TO220ACS" package="TO220ACS">
<connects>
<connect gate="G$1" pin="1" pad="A"/>
<connect gate="G$1" pin="2" pad="C"/>
</connects>
<technologies>
<technology name=""/>
</technologies>
</device>
</devices>
</deviceset>
<deviceset name="DIODE" prefix="D" uservalue="yes">
<description>&lt;B&gt;DIODE&lt;/B&gt;&lt;p&gt;
high speed (Philips)</description>
<gates>
<gate name="G$1" symbol="D" x="0" y="0"/>
</gates>
<devices>
<device name="SOD123" package="SOD123">
<connects>
<connect gate="G$1" pin="A" pad="ANODE"/>
<connect gate="G$1" pin="C" pad="CATHODE"/>
</connects>
<technologies>
<technology name=""/>
</technologies>
</device>
<device name="DIODE" package="0805-DIODE">
<connects>
<connect gate="G$1" pin="A" pad="1"/>
<connect gate="G$1" pin="C" pad="2"/>
</connects>
<technologies>
<technology name=""/>
</technologies>
</device>
<device name="SOD123HE" package="SOD-123HE">
<connects>
<connect gate="G$1" pin="A" pad="P$2"/>
<connect gate="G$1" pin="C" pad="P$1"/>
</connects>
<technologies>
<technology name=""/>
</technologies>
</device>
<device name="SMA403D" package="SMA-403D">
<connects>
<connect gate="G$1" pin="A" pad="P$2"/>
<connect gate="G$1" pin="C" pad="P$1"/>
</connects>
<technologies>
<technology name=""/>
</technologies>
</device>
</devices>
</deviceset>
</devicesets>
</library>
</libraries>
<attributes>
</attributes>
<variantdefs>
</variantdefs>
<classes>
<class number="0" name="default" width="0" drill="0">
</class>
</classes>
<parts>
<part name="GND1" library="supply1" library_urn="urn:adsk.eagle:library:371" deviceset="GND" device=""/>
<part name="P+1" library="supply1" library_urn="urn:adsk.eagle:library:371" deviceset="V+" device=""/>
<part name="R1" library="passives" deviceset="RESISTOR" device="2512" value="BIG"/>
<part name="D1" library="passives" deviceset="DIODE" device="SMA403D" value="TVS"/>
<part name="U$1" library="connector" deviceset="SQUIDPOWER_3" device="PDB_SPLIT"/>
<part name="U$2" library="connector" deviceset="SQUIDPOWER_3" device="PDB_SPLIT"/>
</parts>
<sheets>
<sheet>
<plain>
</plain>
<instances>
<instance part="GND1" gate="1" x="50.8" y="-2.54" smashed="yes">
<attribute name="VALUE" x="48.26" y="-5.08" size="1.778" layer="96"/>
</instance>
<instance part="P+1" gate="1" x="48.26" y="86.36" smashed="yes">
<attribute name="VALUE" x="45.72" y="83.82" size="1.778" layer="96" rot="R90"/>
</instance>
<instance part="R1" gate="G$1" x="30.48" y="60.96" smashed="yes" rot="R90">
<attribute name="NAME" x="28.9814" y="57.15" size="1.778" layer="95" rot="R90"/>
<attribute name="VALUE" x="33.782" y="57.15" size="1.778" layer="96" rot="R90"/>
<attribute name="PRECISION" x="37.338" y="57.15" size="1.27" layer="97" rot="R90"/>
<attribute name="PACKAGE" x="35.56" y="57.15" size="1.27" layer="97" rot="R90"/>
</instance>
<instance part="D1" gate="G$1" x="30.48" y="43.18" smashed="yes" rot="R270">
<attribute name="NAME" x="30.9626" y="40.64" size="1.778" layer="95" rot="R270"/>
<attribute name="VALUE" x="28.1686" y="40.64" size="1.778" layer="96" rot="R270"/>
</instance>
<instance part="U$1" gate="G$1" x="63.5" y="53.34" smashed="yes">
<attribute name="VALUE" x="60.96" y="43.18" size="1.778" layer="96" font="vector"/>
<attribute name="NAME" x="60.96" y="66.548" size="1.778" layer="95" font="vector"/>
</instance>
<instance part="U$2" gate="G$1" x="63.5" y="20.32" smashed="yes">
<attribute name="VALUE" x="60.96" y="10.16" size="1.778" layer="96" font="vector"/>
<attribute name="NAME" x="60.96" y="33.528" size="1.778" layer="95" font="vector"/>
</instance>
</instances>
<busses>
</busses>
<nets>
<net name="GND" class="0">
<segment>
<pinref part="GND1" gate="1" pin="GND"/>
<wire x1="30.48" y1="7.62" x2="50.8" y2="7.62" width="0.1524" layer="91"/>
<wire x1="50.8" y1="7.62" x2="50.8" y2="0" width="0.1524" layer="91"/>
<wire x1="30.48" y1="27.94" x2="50.8" y2="27.94" width="0.1524" layer="91"/>
<wire x1="50.8" y1="27.94" x2="50.8" y2="7.62" width="0.1524" layer="91"/>
<junction x="50.8" y="7.62"/>
<wire x1="30.48" y1="48.26" x2="50.8" y2="48.26" width="0.1524" layer="91"/>
<wire x1="50.8" y1="48.26" x2="50.8" y2="38.1" width="0.1524" layer="91"/>
<junction x="50.8" y="27.94"/>
<wire x1="50.8" y1="38.1" x2="50.8" y2="27.94" width="0.1524" layer="91"/>
<wire x1="30.48" y1="66.04" x2="50.8" y2="66.04" width="0.1524" layer="91"/>
<wire x1="50.8" y1="66.04" x2="50.8" y2="48.26" width="0.1524" layer="91"/>
<junction x="50.8" y="48.26"/>
<wire x1="83.82" y1="38.1" x2="73.66" y2="38.1" width="0.1524" layer="91"/>
<junction x="50.8" y="38.1"/>
<wire x1="73.66" y1="38.1" x2="50.8" y2="38.1" width="0.1524" layer="91"/>
<wire x1="83.82" y1="15.24" x2="83.82" y2="38.1" width="0.1524" layer="91"/>
<pinref part="R1" gate="G$1" pin="2"/>
<pinref part="D1" gate="G$1" pin="A"/>
<wire x1="30.48" y1="45.72" x2="30.48" y2="48.26" width="0.1524" layer="91"/>
<pinref part="U$1" gate="G$1" pin="GND"/>
<wire x1="71.12" y1="48.26" x2="73.66" y2="48.26" width="0.1524" layer="91"/>
<wire x1="73.66" y1="48.26" x2="73.66" y2="38.1" width="0.1524" layer="91"/>
<junction x="73.66" y="38.1"/>
<pinref part="U$2" gate="G$1" pin="GND"/>
<wire x1="83.82" y1="15.24" x2="71.12" y2="15.24" width="0.1524" layer="91"/>
</segment>
</net>
<net name="V+" class="0">
<segment>
<pinref part="P+1" gate="1" pin="V+"/>
<wire x1="30.48" y1="76.2" x2="48.26" y2="76.2" width="0.1524" layer="91"/>
<wire x1="48.26" y1="76.2" x2="48.26" y2="83.82" width="0.1524" layer="91"/>
<wire x1="30.48" y1="55.88" x2="48.26" y2="55.88" width="0.1524" layer="91"/>
<wire x1="48.26" y1="55.88" x2="48.26" y2="76.2" width="0.1524" layer="91"/>
<junction x="48.26" y="76.2"/>
<wire x1="30.48" y1="35.56" x2="48.26" y2="35.56" width="0.1524" layer="91"/>
<wire x1="48.26" y1="35.56" x2="48.26" y2="55.88" width="0.1524" layer="91"/>
<junction x="48.26" y="55.88"/>
<wire x1="30.48" y1="15.24" x2="48.26" y2="15.24" width="0.1524" layer="91"/>
<wire x1="48.26" y1="15.24" x2="48.26" y2="35.56" width="0.1524" layer="91"/>
<junction x="48.26" y="35.56"/>
<wire x1="86.36" y1="76.2" x2="73.66" y2="76.2" width="0.1524" layer="91"/>
<wire x1="73.66" y1="76.2" x2="48.26" y2="76.2" width="0.1524" layer="91"/>
<wire x1="86.36" y1="76.2" x2="86.36" y2="30.48" width="0.1524" layer="91"/>
<pinref part="R1" gate="G$1" pin="1"/>
<pinref part="D1" gate="G$1" pin="C"/>
<wire x1="30.48" y1="40.64" x2="30.48" y2="35.56" width="0.1524" layer="91"/>
<pinref part="U$1" gate="G$1" pin="24V"/>
<wire x1="73.66" y1="63.5" x2="71.12" y2="63.5" width="0.1524" layer="91"/>
<wire x1="73.66" y1="63.5" x2="73.66" y2="76.2" width="0.1524" layer="91"/>
<junction x="73.66" y="76.2"/>
<pinref part="U$2" gate="G$1" pin="24V"/>
<wire x1="71.12" y1="30.48" x2="86.36" y2="30.48" width="0.1524" layer="91"/>
</segment>
</net>
<net name="+5V" class="0">
<segment>
<pinref part="U$1" gate="G$1" pin="5V"/>
<wire x1="71.12" y1="55.88" x2="93.98" y2="55.88" width="0.1524" layer="91"/>
<pinref part="U$2" gate="G$1" pin="5V"/>
<wire x1="93.98" y1="55.88" x2="93.98" y2="22.86" width="0.1524" layer="91"/>
<wire x1="93.98" y1="22.86" x2="71.12" y2="22.86" width="0.1524" layer="91"/>
<label x="78.74" y="55.88" size="1.778" layer="95"/>
</segment>
</net>
</nets>
</sheet>
</sheets>
</schematic>
</drawing>
<compatibility>
<note version="8.2" severity="warning">
Since Version 8.2, EAGLE supports online libraries. The ids
of those online libraries will not be understood (or retained)
with this version.
</note>
<note version="8.3" severity="warning">
Since Version 8.3, EAGLE supports URNs for individual library
assets (packages, symbols, and devices). The URNs of those assets
will not be understood (or retained) with this version.
</note>
</compatibility>
</eagle>
